{
  "project_info": {
    "project_number": "50353765929",
    "firebase_url": "https://appbares-b3d47.firebaseio.com",
    "project_id": "appbares-b3d47",
    "storage_bucket": "appbares-b3d47.appspot.com"
  },
  "client": [
    {
      "client_info": {
        "mobilesdk_app_id": "1:50353765929:android:c8ec838b2127263e446638",
        "android_client_info": {
          "package_name": "com.example.appbares"
        }
      },
      "oauth_client": [
        {
          "client_id": "50353765929-k83nau1r5k47gpfjqileoof138vhciu8.apps.googleusercontent.com",
          "client_type": 1,
          "android_info": {
            "package_name": "com.example.appbares",
            "certificate_hash": "8c497b91e906c30f93ccc604a2876f19faec98f0"
          }
        },
        {
          "client_id": "50353765929-i4dhqe192vgqsvv6ji0j6371rufq04c8.apps.googleusercontent.com",
          "client_type": 3
        }
      ],
      "api_key": [
        {
          "current_key": "AIzaSyDaW5fRHCbqS5TKjWekaC6_dpH4MKijRVE"
        }
      ],
      "services": {
        "appinvite_service": {
          "other_platform_oauth_client": [
            {
              "client_id": "50353765929-i4dhqe192vgqsvv6ji0j6371rufq04c8.apps.googleusercontent.com",
              "client_type": 3
            }
          ]
        }
      }
    }
  ],
  "configuration_version": "1"
}